{
  "apps": [{
    "name": "cybertron-rodimus-local",
    "script": "./build/server/index.js",
    "watch": "./build/server",
    "merge_logs": true,
    "log_date_format" : "YYYY-MM-DD HH:mm Z"
  }, {
    "name": "cybertron-rodimus",
    "script": "./build/server/index.js",
    "instances": 2,
    "exec_mode": "cluster",
    "merge_logs": true,
    "log_date_format" : "YYYY-MM-DD HH:mm Z"
  }]
}
