{
  "apps": [{
    "name": "cybertron-vortex",
    "script": "./src/server/index.js",
    "instances": 1,
    "exec_mode": "cluster",
    "merge_logs": true,
    "log_date_format" : "YYYY-MM-DD HH:mm Z"
  }]
}
